<svg width="18" height="18" viewBox="0 0 18 18" fill="none" xmlns="http://www.w3.org/2000/svg">
<path d="M12 0.75V4.85156L9.75 6.1875V3.91406L8.625 4.61719L6 6.1875V3.91406L4.875 4.61719L1.125 6.86719L0.75 7.07812V17.25H17.25V0.75H12ZM13.5 2.25H15.75V15.75H2.25V7.89844L4.5 6.5625V8.83594L5.625 8.13281L8.25 6.5625V8.83594L9.375 8.13281L13.125 5.88281L13.5 5.67188V2.25ZM3.75 9.75V11.25H5.25V9.75H3.75ZM6.75 9.75V11.25H8.25V9.75H6.75ZM9.75 9.75V11.25H11.25V9.75H9.75ZM12.75 9.75V11.25H14.25V9.75H12.75ZM3.75 12.75V14.25H5.25V12.75H3.75ZM6.75 12.75V14.25H8.25V12.75H6.75ZM9.75 12.75V14.25H11.25V12.75H9.75ZM12.75 12.75V14.25H14.25V12.75H12.75Z" fill="#5E81F4"/>
</svg>
