<svg width="19" height="19" viewBox="0 0 19 19" fill="none" xmlns="http://www.w3.org/2000/svg">
<path d="M7.2793 0.8125C6.4056 0.8125 5.59635 1.02734 4.85156 1.45703C4.12109 1.88672 3.54102 2.47396 3.11133 3.21875C2.68164 3.94922 2.4668 4.7513 2.4668 5.625C2.4668 6.44141 2.65299 7.20052 3.02539 7.90234C3.41211 8.60417 3.9349 9.17708 4.59375 9.62109C3.77734 9.97917 3.04688 10.4733 2.40234 11.1035C1.77214 11.7337 1.28516 12.457 0.941406 13.2734C0.583333 14.1185 0.404297 15.0065 0.404297 15.9375H1.7793C1.7793 14.9349 2.02279 14.0182 2.50977 13.1875C3.01107 12.3424 3.67708 11.6764 4.50781 11.1895C5.35286 10.6882 6.27669 10.4375 7.2793 10.4375C7.99544 10.4375 8.68294 10.5807 9.3418 10.8672C9.97201 11.125 10.5449 11.4974 11.0605 11.9844L7.81641 15.2285L7.30078 17.8711L7.08594 18.8809L8.0957 18.666L10.7383 18.1504L17.6777 11.2109C18.0788 10.8099 18.2793 10.3229 18.2793 9.75C18.2793 9.17708 18.0788 8.6901 17.6777 8.28906C17.2767 7.88802 16.7897 7.6875 16.2168 7.6875C15.6582 7.6875 15.1784 7.88086 14.7773 8.26758L12.0488 10.9961C11.4329 10.4089 10.7383 9.95052 9.96484 9.62109C10.6237 9.17708 11.1393 8.60417 11.5117 7.90234C11.8984 7.20052 12.0918 6.44141 12.0918 5.625C12.0918 4.7513 11.877 3.94922 11.4473 3.21875C11.0176 2.47396 10.4303 1.88672 9.68555 1.45703C8.95508 1.02734 8.15299 0.8125 7.2793 0.8125ZM7.2793 2.1875C7.90951 2.1875 8.48242 2.34505 8.99805 2.66016C9.52799 2.96094 9.94336 3.3763 10.2441 3.90625C10.5592 4.42188 10.7168 4.99479 10.7168 5.625C10.7168 6.25521 10.5592 6.83529 10.2441 7.36523C9.94336 7.88086 9.52799 8.29622 8.99805 8.61133C8.48242 8.91211 7.90951 9.0625 7.2793 9.0625C6.64909 9.0625 6.06901 8.91211 5.53906 8.61133C5.02344 8.29622 4.60807 7.88086 4.29297 7.36523C3.99219 6.83529 3.8418 6.25521 3.8418 5.625C3.8418 4.99479 3.99219 4.42188 4.29297 3.90625C4.60807 3.3763 5.02344 2.96094 5.53906 2.66016C6.06901 2.34505 6.64909 2.1875 7.2793 2.1875ZM16.2168 9.0625C16.4173 9.0625 16.582 9.13411 16.7109 9.27734C16.8542 9.40625 16.9258 9.5638 16.9258 9.75C16.9258 9.92188 16.8542 10.0794 16.7109 10.2227L10.0508 16.8828L8.82617 17.1406L9.08398 15.916L15.7441 9.25586C15.873 9.12695 16.0306 9.0625 16.2168 9.0625Z" fill="#5E81F4"/>
</svg>
